{
    "prefix": "$",
    "token": "ODM4MTI4NDAxOTY4NzkxNjAy.YI2l5g.VieNQCKazmlliR6hsvQ9ujK8BUQ",
    "argsThreshold": 10,
    "memesChannel": {
        "name": "memes",
        "id": "819644670790991913"
    },
    "memesFolder": {
        "pictures": "./memes/pictures/",
        "infos": "./memes/"
    },
    "emoji": {
        "success": "✅",
        "failure": "🆘"
    },
    "imageFormats": ["webp", "png", "jpg", "jpeg", "gif"]
}